{
  "project_info": {
    "project_number": "563926661323",
    "firebase_url": "https://thankucash-59ab5.firebaseio.com",
    "project_id": "thankucash-59ab5",
    "storage_bucket": "thankucash-59ab5.appspot.com"
  },
  "client": [
    {
      "client_info": {
        "mobilesdk_app_id": "1:563926661323:android:2d5f005a21239278e5034e",
        "android_client_info": {
          "package_name": "com.hm.thankucard"
        }
      },
      "oauth_client": [
        {
          "client_id": "563926661323-lbgebkgv8nq6se6hgq26kosrfphpvri9.apps.googleusercontent.com",
          "client_type": 3
        }
      ],
      "api_key": [
        {
          "current_key": "AIzaSyCjffrX9ne8-zZ0t8eN7AxDdSdhXC4JU8w"
        }
      ],
      "services": {
        "appinvite_service": {
          "other_platform_oauth_client": [
            {
              "client_id": "563926661323-lbgebkgv8nq6se6hgq26kosrfphpvri9.apps.googleusercontent.com",
              "client_type": 3
            },
            {
              "client_id": "563926661323-4v8td1k1i9mrmlucn6jlohccomaop7fs.apps.googleusercontent.com",
              "client_type": 2,
              "ios_info": {
                "bundle_id": "com.hm.thankucard"
              }
            }
          ]
        }
      }
    }
  ],
  "configuration_version": "1"
}